"Real Estate and Renting"	"Manufacturing (Wood Products)"	"Construction"	"Manufacturing (Textiles)"	
2000	241	3	382	154	
2001	85	12	392	115	
2002	120	4	398	157	
2003	295	11	487	266	
2004	353	7	720	309	
2005	659	13	949	394	
2006	654	25	1299	227	
2007	915	6	2220	294	
2008	858	16	2407	200	
2009	604	21	1138	188	
2010	1169	12	2293	304	
2011	1120	17	2061	344	
2012	971	15	1869	380	
2013	822	15	1743	345	
2014	496	5	979	162	
2015	485	7	810	201	
2016	334	12	809	193	
2017	381	15	792	255	
2018	111	6	232	90	
